<?xml version="1.0" encoding="iso-8859-1"?>
<!-- Generator: Adobe Illustrator 19.0.0, SVG Export Plug-In . SVG Version: 6.00 Build 0)  -->
<svg version="1.1" id="Layer_1" xmlns="http://www.w3.org/2000/svg" xmlns:xlink="http://www.w3.org/1999/xlink" x="0px" y="0px"
	 fill="#298de4" viewBox="0 0 511.913 511.913" style="enable-background:new 0 0 511.913 511.913;" xml:space="preserve">
<g>
	<g>
		<path d="M506.483,251.604l-37.504-83.84c-3.115-64.256-108.416-93.141-213.035-93.141c-104.512,0-209.707,28.843-213.013,92.949
			L5.555,251.178c-10.496,20.992-5.824,46.827,11.52,63.019l135.787,120.405c1.984,1.749,4.501,2.688,7.083,2.688
			c0.683,0,1.344-0.064,1.963-0.192c3.264-0.619,6.059-2.731,7.531-5.696l39.723-79.445h93.504l39.723,79.445
			c1.493,2.965,4.267,5.077,7.531,5.696c0.683,0.128,1.344,0.192,2.027,0.192c2.581,0,5.099-0.939,7.04-2.688l136-120.576
			C512.137,298.026,516.787,272.191,506.483,251.604z M255.945,95.956c105.195,0,185.301,29.675,191.403,69.76l-162.987,122.24
			h-56.917L64.542,165.759C70.601,125.652,150.729,95.956,255.945,95.956z M156.638,409.428L31.454,298.431
			c-10.304-9.6-13.099-25.109-6.592-38.123l32.704-73.131l152.875,114.645L156.638,409.428z M219.827,330.623l10.667-21.333h50.837
			l10.667,21.333H219.827z M480.649,298.239L355.273,409.407L301.47,301.802l152.853-114.645l32.896,73.557
			C493.534,273.322,490.739,288.831,480.649,298.239z"/>
	</g>
</g>
<g>
</g>
<g>
</g>
<g>
</g>
<g>
</g>
<g>
</g>
<g>
</g>
<g>
</g>
<g>
</g>
<g>
</g>
<g>
</g>
<g>
</g>
<g>
</g>
<g>
</g>
<g>
</g>
<g>
</g>
</svg>
